[
  {
    "loss": 4.083928955078125,
    "learning_rate": 0.0005,
    "epoch": 0.08793527963418923,
    "total_flos": 772153122816000,
    "step": 500
  },
  {
    "loss": 1.996235107421875,
    "learning_rate": 0.000484901558159198,
    "epoch": 0.17587055926837847,
    "total_flos": 1544306245632000,
    "step": 1000
  },
  {
    "loss": 1.79702685546875,
    "learning_rate": 0.00046980311631839597,
    "epoch": 0.2638058389025677,
    "total_flos": 2316459368448000,
    "step": 1500
  },
  {
    "loss": 1.70358154296875,
    "learning_rate": 0.00045470467447759395,
    "epoch": 0.35174111853675694,
    "total_flos": 3088612491264000,
    "step": 2000
  },
  {
    "loss": 1.7019208984375,
    "learning_rate": 0.0004396062326367919,
    "epoch": 0.43967639817094617,
    "total_flos": 3860765614080000,
    "step": 2500
  },
  {
    "loss": 1.631076171875,
    "learning_rate": 0.0004245077907959899,
    "epoch": 0.5276116778051354,
    "total_flos": 4632918736896000,
    "step": 3000
  },
  {
    "loss": 1.614947265625,
    "learning_rate": 0.00040940934895518783,
    "epoch": 0.6155469574393246,
    "total_flos": 5405071859712000,
    "step": 3500
  },
  {
    "loss": 1.5972421875,
    "learning_rate": 0.0003943109071143858,
    "epoch": 0.7034822370735139,
    "total_flos": 6177224982528000,
    "step": 4000
  },
  {
    "loss": 1.606876953125,
    "learning_rate": 0.0003792124652735838,
    "epoch": 0.7914175167077031,
    "total_flos": 6949378105344000,
    "step": 4500
  },
  {
    "loss": 1.56894921875,
    "learning_rate": 0.0003641140234327818,
    "epoch": 0.8793527963418923,
    "total_flos": 7721531228160000,
    "step": 5000
  },
  {
    "loss": 1.552255859375,
    "learning_rate": 0.0003490155815919797,
    "epoch": 0.9672880759760816,
    "total_flos": 8493684350976000,
    "step": 5500
  },
  {
    "loss": 1.49853125,
    "learning_rate": 0.00033391713975117773,
    "epoch": 1.0552233556102708,
    "total_flos": 9265837473792000,
    "step": 6000
  },
  {
    "loss": 1.49241796875,
    "learning_rate": 0.00031881869791037566,
    "epoch": 1.14315863524446,
    "total_flos": 10037990596608000,
    "step": 6500
  },
  {
    "loss": 1.484990234375,
    "learning_rate": 0.00030372025606957364,
    "epoch": 1.2310939148786493,
    "total_flos": 10810143719424000,
    "step": 7000
  },
  {
    "loss": 1.48001953125,
    "learning_rate": 0.0002886218142287716,
    "epoch": 1.3190291945128385,
    "total_flos": 11582296842240000,
    "step": 7500
  },
  {
    "loss": 1.47202734375,
    "learning_rate": 0.0002735233723879696,
    "epoch": 1.4069644741470277,
    "total_flos": 12354449965056000,
    "step": 8000
  },
  {
    "loss": 1.451431640625,
    "learning_rate": 0.0002584249305471675,
    "epoch": 1.494899753781217,
    "total_flos": 13126603087872000,
    "step": 8500
  },
  {
    "loss": 1.45923046875,
    "learning_rate": 0.0002433264887063655,
    "epoch": 1.5828350334154062,
    "total_flos": 13898756210688000,
    "step": 9000
  },
  {
    "loss": 1.440482421875,
    "learning_rate": 0.00022822804686556348,
    "epoch": 1.6707703130495954,
    "total_flos": 14670909333504000,
    "step": 9500
  },
  {
    "loss": 1.44767578125,
    "learning_rate": 0.00021312960502476144,
    "epoch": 1.7587055926837847,
    "total_flos": 15443062456320000,
    "step": 10000
  },
  {
    "loss": 1.44176171875,
    "learning_rate": 0.00019803116318395942,
    "epoch": 1.8466408723179741,
    "total_flos": 16215215579136000,
    "step": 10500
  },
  {
    "loss": 1.4068984375,
    "learning_rate": 0.0001829327213431574,
    "epoch": 1.9345761519521631,
    "total_flos": 16987368701952000,
    "step": 11000
  },
  {
    "loss": 1.3951796875,
    "learning_rate": 0.00016783427950235535,
    "epoch": 2.0225114315863526,
    "total_flos": 17759521824768000,
    "step": 11500
  },
  {
    "loss": 1.34730859375,
    "learning_rate": 0.00015273583766155333,
    "epoch": 2.1104467112205416,
    "total_flos": 18531674947584000,
    "step": 12000
  },
  {
    "loss": 1.3531484375,
    "learning_rate": 0.0001376373958207513,
    "epoch": 2.198381990854731,
    "total_flos": 19303828070400000,
    "step": 12500
  },
  {
    "loss": 1.3606875,
    "learning_rate": 0.00012253895397994926,
    "epoch": 2.28631727048892,
    "total_flos": 20075981193216000,
    "step": 13000
  },
  {
    "loss": 1.337328125,
    "learning_rate": 0.00010744051213914724,
    "epoch": 2.3742525501231095,
    "total_flos": 20848134316032000,
    "step": 13500
  },
  {
    "loss": 1.3348359375,
    "learning_rate": 9.23420702983452e-05,
    "epoch": 2.4621878297572986,
    "total_flos": 21620287438848000,
    "step": 14000
  },
  {
    "loss": 1.3278046875,
    "learning_rate": 7.724362845754319e-05,
    "epoch": 2.550123109391488,
    "total_flos": 22392440561664000,
    "step": 14500
  },
  {
    "loss": 1.33255078125,
    "learning_rate": 6.214518661674115e-05,
    "epoch": 2.638058389025677,
    "total_flos": 23164593684480000,
    "step": 15000
  },
  {
    "loss": 1.31480078125,
    "learning_rate": 4.704674477593912e-05,
    "epoch": 2.7259936686598665,
    "total_flos": 23936746807296000,
    "step": 15500
  },
  {
    "loss": 1.296375,
    "learning_rate": 3.194830293513709e-05,
    "epoch": 2.8139289482940555,
    "total_flos": 24708899930112000,
    "step": 16000
  },
  {
    "loss": 1.31215625,
    "learning_rate": 1.6849861094335065e-05,
    "epoch": 2.901864227928245,
    "total_flos": 25481053052928000,
    "step": 16500
  },
  {
    "loss": 1.33053125,
    "learning_rate": 1.7514192535330354e-06,
    "epoch": 2.989799507562434,
    "total_flos": 26253206175744000,
    "step": 17000
  }
]